%YAML 1.1
%TAG !u! tag:unity3d.com,2011:
--- !u!114 &11400000
MonoBehaviour:
  m_ObjectHideFlags: 0
  m_CorrespondingSourceObject: {fileID: 0}
  m_PrefabInstance: {fileID: 0}
  m_PrefabAsset: {fileID: 0}
  m_GameObject: {fileID: 0}
  m_Enabled: 1
  m_EditorHideFlags: 0
  m_Script: {fileID: 11500000, guid: 6c001f963b2443e0aca94b0278b226c6, type: 3}
  m_Name: SugarTileData 2
  m_EditorClassIdentifier: 
  tiles:
  - {fileID: 11400000, guid: 241190ad595a571478e1ac1cdd7d9996, type: 2}
  durability: 15
  food: 20
