%YAML 1.1
%TAG !u! tag:unity3d.com,2011:
--- !u!114 &11400000
MonoBehaviour:
  m_ObjectHideFlags: 0
  m_CorrespondingSourceObject: {fileID: 0}
  m_PrefabInstance: {fileID: 0}
  m_PrefabAsset: {fileID: 0}
  m_GameObject: {fileID: 0}
  m_Enabled: 1
  m_EditorHideFlags: 0
  m_Script: {fileID: 11500000, guid: 6c001f963b2443e0aca94b0278b226c6, type: 3}
  m_Name: SugarTileData 3
  m_EditorClassIdentifier: 
  tiles:
  - {fileID: 11400000, guid: f1cd62598776d4f42a3bc39aa8c3d218, type: 2}
  durability: 10
  food: 9
